{
	"appId": "fr.clubpeinardnew.app",
	"appName": "Club Peinard",
	"webDir": "www",
	"bundledWebRuntime": false,
	"plugins": {
		"SplashScreen": {
			"launchAutoHide": false
		},
		"PushNotifications": {
			"presentationOptions": [
				"badge",
				"sound",
				"alert"
			]
		},
		"LocalNotifications": {
			"smallIcon": "ic_stat_icon_config_sample",
			"iconColor": "#488AFF",
			"sound": "beep.wav"
		}
	}
}
